%YAML 1.1
%TAG !u! tag:unity3d.com,2011:
--- !u!1045 &1
EditorBuildSettings:
  m_ObjectHideFlags: 0
  serializedVersion: 2
  m_Scenes:
  - enabled: 1
    path: Assets/Scenes/TrashToss.unity
    guid: 59a92c14e234944999560e3b579249e6
  - enabled: 1
    path: Assets/GoogleARCore/Examples/HelloAR/Scenes/HelloAR.unity
    guid: e6a6fa04348cb45c9b0221eb19c946da
